2023112014_Project/Verilog/Verilog Files/finalcla.vcd
$date
	Wed Nov 20 11:23:56 2024
$end
$version
	Icarus Verilog
$end
$timescale
	1s
$end
$scope module tb_fcla $end
$var wire 1 ! cout $end
$var wire 4 " S [3:0] $end
$var reg 4 # A [3:0] $end
$var reg 4 $ B [3:0] $end
$var reg 1 % cin $end
$var reg 1 & clk $end
$scope module uut $end
$var wire 4 ' A [3:0] $end
$var wire 4 ( B [3:0] $end
$var wire 1 % cin $end
$var wire 1 & clk $end
$var wire 1 ) cout_int $end
$var wire 1 ! cout $end
$var wire 1 * cin_reg $end
$var wire 4 + S_int [3:0] $end
$var wire 4 , S [3:0] $end
$var wire 4 - B_reg [3:0] $end
$var wire 4 . A_reg [3:0] $end
$scope module cla_inst $end
$var wire 1 ) cout $end
$var wire 1 / p0_cin $end
$var wire 1 0 p1_g0 $end
$var wire 1 1 p1_p0_cin $end
$var wire 1 2 p2_g1 $end
$var wire 1 3 p2_p1_g0 $end
$var wire 1 4 p2_p1_p0_cin $end
$var wire 1 5 p3_c3 $end
$var wire 1 * cin $end
$var wire 4 6 S [3:0] $end
$var wire 4 7 P [3:0] $end
$var wire 4 8 G [3:0] $end
$var wire 3 9 C [3:1] $end
$var wire 4 : B [3:0] $end
$var wire 4 ; A [3:0] $end
$upscope $end
$scope module dff_A $end
$var wire 1 & clk $end
$var wire 4 < d [3:0] $end
$var wire 4 = q [3:0] $end
$scope module uff0 $end
$var wire 1 & clk $end
$var wire 1 > clkn $end
$var wire 1 ? d $end
$var wire 1 @ dc $end
$var wire 1 A dc1 $end
$var wire 1 B nd $end
$var wire 1 C ndc $end
$var wire 1 D ndc1 $end
$var wire 1 E q $end
$var wire 1 F q1 $end
$var wire 1 G q1n $end
$var wire 1 H qn $end
$upscope $end
$scope module uff1 $end
$var wire 1 & clk $end
$var wire 1 I clkn $end
$var wire 1 J d $end
$var wire 1 K dc $end
$var wire 1 L dc1 $end
$var wire 1 M nd $end
$var wire 1 N ndc $end
$var wire 1 O ndc1 $end
$var wire 1 P q $end
$var wire 1 Q q1 $end
$var wire 1 R q1n $end
$var wire 1 S qn $end
$upscope $end
$scope module uff2 $end
$var wire 1 & clk $end
$var wire 1 T clkn $end
$var wire 1 U d $end
$var wire 1 V dc $end
$var wire 1 W dc1 $end
$var wire 1 X nd $end
$var wire 1 Y ndc $end
$var wire 1 Z ndc1 $end
$var wire 1 [ q $end
$var wire 1 \ q1 $end
$var wire 1 ] q1n $end
$var wire 1 ^ qn $end
$upscope $end
$scope module uff3 $end
$var wire 1 & clk $end
$var wire 1 _ clkn $end
$var wire 1 ` d $end
$var wire 1 a dc $end
$var wire 1 b dc1 $end
$var wire 1 c nd $end
$var wire 1 d ndc $end
$var wire 1 e ndc1 $end
$var wire 1 f q $end
$var wire 1 g q1 $end
$var wire 1 h q1n $end
$var wire 1 i qn $end
$upscope $end
$upscope $end
$scope module dff_B $end
$var wire 1 & clk $end
$var wire 4 j d [3:0] $end
$var wire 4 k q [3:0] $end
$scope module uff0 $end
$var wire 1 & clk $end
$var wire 1 l clkn $end
$var wire 1 m d $end
$var wire 1 n dc $end
$var wire 1 o dc1 $end
$var wire 1 p nd $end
$var wire 1 q ndc $end
$var wire 1 r ndc1 $end
$var wire 1 s q $end
$var wire 1 t q1 $end
$var wire 1 u q1n $end
$var wire 1 v qn $end
$upscope $end
$scope module uff1 $end
$var wire 1 & clk $end
$var wire 1 w clkn $end
$var wire 1 x d $end
$var wire 1 y dc $end
$var wire 1 z dc1 $end
$var wire 1 { nd $end
$var wire 1 | ndc $end
$var wire 1 } ndc1 $end
$var wire 1 ~ q $end
$var wire 1 !" q1 $end
$var wire 1 "" q1n $end
$var wire 1 #" qn $end
$upscope $end
$scope module uff2 $end
$var wire 1 & clk $end
$var wire 1 $" clkn $end
$var wire 1 %" d $end
$var wire 1 &" dc $end
$var wire 1 '" dc1 $end
$var wire 1 (" nd $end
$var wire 1 )" ndc $end
$var wire 1 *" ndc1 $end
$var wire 1 +" q $end
$var wire 1 ," q1 $end
$var wire 1 -" q1n $end
$var wire 1 ." qn $end
$upscope $end
$scope module uff3 $end
$var wire 1 & clk $end
$var wire 1 /" clkn $end
$var wire 1 0" d $end
$var wire 1 1" dc $end
$var wire 1 2" dc1 $end
$var wire 1 3" nd $end
$var wire 1 4" ndc $end
$var wire 1 5" ndc1 $end
$var wire 1 6" q $end
$var wire 1 7" q1 $end
$var wire 1 8" q1n $end
$var wire 1 9" qn $end
$upscope $end
$upscope $end
$scope module dff_S $end
$var wire 1 & clk $end
$var wire 4 :" d [3:0] $end
$var wire 4 ;" q [3:0] $end
$scope module uff0 $end
$var wire 1 & clk $end
$var wire 1 <" clkn $end
$var wire 1 =" d $end
$var wire 1 >" dc $end
$var wire 1 ?" dc1 $end
$var wire 1 @" nd $end
$var wire 1 A" ndc $end
$var wire 1 B" ndc1 $end
$var wire 1 C" q $end
$var wire 1 D" q1 $end
$var wire 1 E" q1n $end
$var wire 1 F" qn $end
$upscope $end
$scope module uff1 $end
$var wire 1 & clk $end
$var wire 1 G" clkn $end
$var wire 1 H" d $end
$var wire 1 I" dc $end
$var wire 1 J" dc1 $end
$var wire 1 K" nd $end
$var wire 1 L" ndc $end
$var wire 1 M" ndc1 $end
$var wire 1 N" q $end
$var wire 1 O" q1 $end
$var wire 1 P" q1n $end
$var wire 1 Q" qn $end
$upscope $end
$scope module uff2 $end
$var wire 1 & clk $end
$var wire 1 R" clkn $end
$var wire 1 S" d $end
$var wire 1 T" dc $end
$var wire 1 U" dc1 $end
$var wire 1 V" nd $end
$var wire 1 W" ndc $end
$var wire 1 X" ndc1 $end
$var wire 1 Y" q $end
$var wire 1 Z" q1 $end
$var wire 1 [" q1n $end
$var wire 1 \" qn $end
$upscope $end
$scope module uff3 $end
$var wire 1 & clk $end
$var wire 1 ]" clkn $end
$var wire 1 ^" d $end
$var wire 1 _" dc $end
$var wire 1 `" dc1 $end
$var wire 1 a" nd $end
$var wire 1 b" ndc $end
$var wire 1 c" ndc1 $end
$var wire 1 d" q $end
$var wire 1 e" q1 $end
$var wire 1 f" q1n $end
$var wire 1 g" qn $end
$upscope $end
$upscope $end
$scope module dff_cin $end
$var wire 1 & clk $end
$var wire 1 h" clkn $end
$var wire 1 % d $end
$var wire 1 i" dc $end
$var wire 1 j" dc1 $end
$var wire 1 k" nd $end
$var wire 1 l" ndc $end
$var wire 1 m" ndc1 $end
$var wire 1 * q $end
$var wire 1 n" q1 $end
$var wire 1 o" q1n $end
$var wire 1 p" qn $end
$upscope $end
$scope module dff_cout $end
$var wire 1 & clk $end
$var wire 1 q" clkn $end
$var wire 1 ) d $end
$var wire 1 r" dc $end
$var wire 1 s" dc1 $end
$var wire 1 t" nd $end
$var wire 1 u" ndc $end
$var wire 1 v" ndc1 $end
$var wire 1 ! q $end
$var wire 1 w" q1 $end
$var wire 1 x" q1n $end
$var wire 1 y" qn $end
$upscope $end
$upscope $end
$upscope $end
$enddefinitions $end
$comment Show the parameter values. $end
$dumpall
$end
#0
$dumpvars
xy"
xx"
xw"
1v"
xu"
xt"
1s"
xr"
1q"
xp"
1o"
0n"
1m"
0l"
1k"
1j"
1i"
1h"
xg"
xf"
xe"
xd"
1c"
xb"
xa"
1`"
x_"
x^"
1]"
x\"
x["
xZ"
xY"
1X"
xW"
xV"
1U"
xT"
xS"
1R"
xQ"
xP"
xO"
xN"
1M"
xL"
xK"
1J"
xI"
xH"
1G"
xF"
xE"
xD"
xC"
1B"
xA"
x@"
1?"
x>"
x="
1<"
bx ;"
bx :"
x9"
18"
07"
x6"
15"
04"
13"
12"
11"
00"
1/"
x."
1-"
0,"
x+"
1*"
0)"
1("
1'"
1&"
0%"
1$"
x#"
1""
0!"
x~
1}
0|
1{
1z
1y
0x
1w
xv
1u
0t
xs
1r
0q
1p
1o
1n
0m
1l
bx k
b0 j
xi
1h
0g
xf
1e
0d
1c
1b
1a
0`
1_
x^
1]
0\
x[
1Z
0Y
1X
1W
1V
0U
1T
xS
1R
0Q
xP
1O
0N
1M
1L
1K
0J
1I
xH
1G
0F
xE
1D
0C
1B
1A
1@
0?
1>
bx =
b0 <
bx ;
bx :
bx 9
bx 8
bx 7
bx 6
x5
x4
x3
x2
x1
x0
x/
bx .
bx -
bx ,
bx +
x*
x)
b0 (
b0 '
0&
0%
b0 $
b0 #
bx "
x!
$end
#5
1V"
1a"
1K"
0S"
0^"
0H"
1@"
1t"
0="
0)
b0 +
b0 6
b0 :"
b0 9
00
02
03
05
b0 7
b0 8
04
01
0/
0E
0P
0[
b0 .
b0 ;
b0 =
0f
0s
0~
0+"
b0 -
b0 :
b0 k
06"
0*
1C
1H
1N
1S
1Y
1^
1d
1i
1q
1v
1|
1#"
1)"
1."
14"
19"
1>"
1A"
1I"
1L"
1T"
1W"
1_"
1b"
1l"
1p"
1r"
1u"
0>
0D
0I
0O
0T
0Z
0_
0e
0l
0r
0w
0}
0$"
0*"
0/"
05"
0<"
x?"
xB"
0G"
xJ"
xM"
0R"
xU"
xX"
0]"
x`"
xc"
0h"
0m"
0q"
xs"
xv"
1&
#10
0D"
0O"
0Z"
0e"
0w"
0u
0""
0-"
0G
0R
0h
1E"
1P"
1["
1f"
1x"
1t
1!"
1,"
1F
1Q
1g
0Y
04"
0A"
0L"
0W"
0b"
0l"
0u"
0p
0n
0{
0y
0("
0&"
0B
0@
0M
0K
0c
0a
1>
1D
1I
1O
1T
1Z
1_
1e
1l
1r
1w
1}
1$"
1*"
1/"
15"
1<"
1?"
1B"
1G"
1J"
1M"
1R"
1U"
1X"
1]"
1`"
1c"
1h"
1m"
1q"
1s"
1v"
1m
1x
1%"
1?
1J
1`
0&
b111 $
b111 (
b111 j
b1011 #
b1011 '
b1011 <
#15
0t"
0K"
1)
1H"
15
1a"
1V"
0^"
0S"
b111 9
12
b10 +
b10 6
b10 :"
b11 8
b1100 7
0H
0S
0i
0v
0#"
0."
0C"
0N"
0Y"
b0 "
b0 ,
b0 ;"
0d"
0!
1@
1E
1K
1P
1Y
1a
b1011 .
b1011 ;
b1011 =
1f
1n
1s
1y
1~
1&"
b111 -
b111 :
b111 k
1+"
14"
1A"
1F"
1L"
1Q"
1W"
1\"
1b"
1g"
1l"
1u"
1y"
0>
0A
0I
0L
0T
0Z
0_
0b
0l
0o
0w
0z
0$"
0'"
0/"
05"
0<"
0B"
0G"
0M"
0R"
0X"
0]"
0c"
0h"
0m"
0q"
0v"
1&
#20
0P"
0x"
1O"
1w"
0@
0K
0Y
0a
0n
0y
0&"
04"
0A"
0I"
0W"
0b"
0l"
0r"
1>
1A
1I
1L
1T
1Z
1_
1b
1l
1o
1w
1z
1$"
1'"
1/"
15"
1<"
1B"
1G"
1M"
1R"
1X"
1]"
1c"
1h"
1m"
1q"
1v"
0&
#25
0Q"
0y"
1@
1K
1Y
1a
1n
1y
1&"
14"
1A"
1I"
b10 "
b10 ,
b10 ;"
1N"
1W"
1b"
1l"
1r"
1!
0>
0A
0I
0L
0T
0Z
0_
0b
0l
0o
0w
0z
0$"
0'"
0/"
05"
0<"
0B"
0G"
0J"
0R"
0X"
0]"
0c"
0h"
0m"
0q"
0s"
1&
#30
0F
0Q
0,"
0o"
0]
1G
1R
1-"
1n"
1\
0C
0N
0a
0n
0y
0)"
04"
0A"
0I"
0W"
0b"
0i"
0r"
1("
1B
1M
0X
0V
1>
1A
1I
1L
1T
1Z
1_
1b
1l
1o
1w
1z
1$"
1'"
1/"
15"
1<"
1B"
1G"
1J"
1R"
1X"
1]"
1c"
1h"
1m"
1q"
1s"
0k"
0%"
0?
0J
1U
0&
1%
b11 $
b11 (
b11 j
b1100 #
b1100 '
b1100 <
#35
1V"
0S"
1K"
0H"
1/
11
14
b111 9
02
b1111 7
b0 8
1@"
0="
0E
0P
0^
b11 -
b11 :
b11 k
0+"
0p"
b0 +
b0 6
b0 :"
1C
1H
1N
1S
1V
b1100 .
b1100 ;
b1100 =
1[
1a
1n
1y
1)"
1."
14"
1A"
1I"
1W"
1b"
1i"
1*
1r"
0>
0D
0I
0O
0T
0W
0_
0b
0l
0o
0w
0z
0$"
0*"
0/"
05"
0<"
0B"
0G"
0J"
0R"
0X"
0]"
0c"
0h"
0j"
0q"
0s"
1&
#40
0O"
1P"
0C
0N
0V
0a
0n
0y
0)"
04"
0A"
0L"
0W"
0b"
0i"
0r"
1>
1D
1I
1O
1T
1W
1_
1b
1l
1o
1w
1z
1$"
1*"
1/"
15"
1<"
1B"
1G"
1J"
1R"
1X"
1]"
1c"
1h"
1j"
1q"
1s"
0&
#45
b0 "
b0 ,
b0 ;"
0N"
1C
1N
1V
1a
1n
1y
1)"
14"
1A"
1L"
1Q"
1W"
1b"
1i"
1r"
0>
0D
0I
0O
0T
0W
0_
0b
0l
0o
0w
0z
0$"
0*"
0/"
05"
0<"
0B"
0G"
0M"
0R"
0X"
0]"
0c"
0h"
0j"
0q"
0s"
1&
#50
0n"
0-"
08"
0R
1o"
1,"
17"
1Q
0C
0V
0a
0n
0y
0A"
0L"
0W"
0b"
0r"
0l"
0("
0&"
03"
01"
0M
0K
1>
1D
1I
1O
1T
1W
1_
1b
1l
1o
1w
1z
1$"
1*"
1/"
15"
1<"
1B"
1G"
1M"
1R"
1X"
1]"
1c"
1h"
1j"
1q"
1s"
1k"
1%"
10"
1J
0&
0%
b1111 $
b1111 (
b1111 j
b1110 #
b1110 '
b1110 <
#55
0V"
0a"
1S"
1^"
05
0@"
1="
b110 9
b1 7
b1110 8
b1101 +
b1101 6
b1101 :"
04
01
0/
0S
0."
09"
0*
1C
1K
b1110 .
b1110 ;
b1110 =
1P
1V
1a
1n
1y
1&"
1+"
11"
b1111 -
b1111 :
b1111 k
16"
1A"
1L"
1W"
1b"
1l"
1p"
1r"
0>
0D
0I
0L
0T
0W
0_
0b
0l
0o
0w
0z
0$"
0'"
0/"
02"
0<"
0B"
0G"
0M"
0R"
0X"
0]"
0c"
0h"
0m"
0q"
0s"
1&
#60
0E"
0["
0f"
1D"
1Z"
1e"
0C
0K
0V
0a
0n
0y
0&"
01"
0>"
0L"
0T"
0_"
0l"
0r"
1>
1D
1I
1L
1T
1W
1_
1b
1l
1o
1w
1z
1$"
1'"
1/"
12"
1<"
1B"
1G"
1M"
1R"
1X"
1]"
1c"
1h"
1m"
1q"
1s"
0&
#65
0F"
0\"
0g"
1C
1K
1V
1a
1n
1y
1&"
11"
1>"
1C"
1L"
1T"
1Y"
1_"
b1101 "
b1101 ,
b1101 ;"
1d"
1l"
1r"
0>
0D
0I
0L
0T
0W
0_
0b
0l
0o
0w
0z
0$"
0'"
0/"
02"
0<"
0?"
0G"
0M"
0R"
0U"
0]"
0`"
0h"
0m"
0q"
0s"
1&
#70
0\
0g
0o"
0G
1]
1h
1n"
1F
0K
0Y
0d
0n
0y
0&"
01"
0>"
0L"
0T"
0_"
0i"
0r"
0B
0@
1X
1c
1>
1D
1I
1L
1T
1W
1_
1b
1l
1o
1w
1z
1$"
1'"
1/"
12"
1<"
1?"
1G"
1M"
1R"
1U"
1]"
1`"
1h"
1m"
1q"
1s"
0k"
1?
0U
0`
0&
1%
b11 #
b11 '
b11 <
#75
1V"
1a"
0S"
0^"
0t"
0K"
12
15
1)
1H"
0@"
b1100 7
b11 8
1="
b111 9
0H
0[
0f
0p"
b11 +
b11 6
b11 :"
0/
1@
b11 .
b11 ;
b11 =
1E
1K
1Y
1^
1d
1i
1n
1y
1&"
11"
1>"
1L"
1T"
1_"
1i"
1*
1r"
0>
0A
0I
0L
0T
0Z
0_
0e
0l
0o
0w
0z
0$"
0'"
0/"
02"
0<"
0?"
0G"
0M"
0R"
0U"
0]"
0`"
0h"
0j"
0q"
0s"
1&
#80
0P"
0Z"
0e"
1O"
1["
1f"
0@
0K
0Y
0d
0n
0y
0&"
01"
0>"
0I"
0W"
0b"
0i"
0r"
1>
1A
1I
1L
1T
1Z
1_
1e
1l
1o
1w
1z
1$"
1'"
1/"
12"
1<"
1?"
1G"
1M"
1R"
1U"
1]"
1`"
1h"
1j"
1q"
1s"
0&
#85
0Q"
0Y"
0d"
1@
1K
1Y
1d
1n
1y
1&"
11"
1>"
1I"
b11 "
b11 ,
b11 ;"
1N"
1W"
1\"
1b"
1g"
1i"
1r"
0>
0A
0I
0L
0T
0Z
0_
0e
0l
0o
0w
0z
0$"
0'"
0/"
02"
0<"
0?"
0G"
0J"
0R"
0X"
0]"
0c"
0h"
0j"
0q"
0s"
1&
#90
0Q
0,"
0n"
0]
0h
1R
1-"
1o"
1\
1g
0@
0N
0n
0y
0)"
01"
0>"
0I"
0W"
0b"
0r"
0l"
1("
1M
0X
0V
0c
0a
1>
1A
1I
1L
1T
1Z
1_
1e
1l
1o
1w
1z
1$"
1'"
1/"
12"
1<"
1?"
1G"
1J"
1R"
1X"
1]"
1c"
1h"
1j"
1q"
1s"
1k"
0%"
0J
1U
1`
0&
0%
b1011 $
b1011 (
b1011 j
b1101 #
b1101 '
b1101 <
#95
1V"
0S"
1K"
0H"
0a"
10
13
b111 9
02
1^"
05
1@"
0="
b110 7
b1001 8
b1000 +
b1000 6
b1000 :"
0P
0^
0i
b1011 -
b1011 :
b1011 k
0+"
0*
1@
1N
1S
1V
1[
1a
b1101 .
b1101 ;
b1101 =
1f
1n
1y
1)"
1."
11"
1>"
1I"
1W"
1b"
1l"
1p"
1r"
0>
0A
0I
0O
0T
0W
0_
0b
0l
0o
0w
0z
0$"
0*"
0/"
02"
0<"
0?"
0G"
0J"
0R"
0X"
0]"
0c"
0h"
0m"
0q"
0s"
1&
#100
0D"
0O"
0f"
1E"
1P"
1e"
0@
0N
0V
0a
0n
0y
0)"
01"
0A"
0L"
0W"
0_"
0l"
0r"
1>
1A
1I
1O
1T
1W
1_
1b
1l
1o
1w
1z
1$"
1*"
1/"
12"
1<"
1?"
1G"
1J"
1R"
1X"
1]"
1c"
1h"
1m"
1q"
1s"
0&
#105
0C"
0N"
0g"
1@
1N
1V
1a
1n
1y
1)"
11"
1A"
1F"
1L"
1Q"
1W"
1_"
b1000 "
b1000 ,
b1000 ;"
1d"
1l"
1r"
0>
0A
0I
0O
0T
0W
0_
0b
0l
0o
0w
0z
0$"
0*"
0/"
02"
0<"
0B"
0G"
0M"
0R"
0X"
0]"
0`"
0h"
0m"
0q"
0s"
1&
#110
0@
0N
0V
0a
0n
0y
0)"
01"
0A"
0L"
0W"
0_"
0l"
0r"
1>
1A
1I
1O
1T
1W
1_
1b
1l
1o
1w
1z
1$"
1*"
1/"
12"
1<"
1B"
1G"
1M"
1R"
1X"
1]"
1`"
1h"
1m"
1q"
1s"
0&
